com\example\demo\service\StocksService.class
com\example\demo\entities\Stocks.class
com\example\demo\controller\StocksController.class
com\example\demo\repository\StocksRepository.class
com\example\demo\repository\MysqlStocksRepository.class
com\example\demo\StocksApplication.class
com\example\demo\repository\StocksRowMapper.class
com\example\demo\SpringFoxConfig.class
