-------------------------------------------------------------------------------
Test set: com.example.demo.controller.StocksControllerTest
-------------------------------------------------------------------------------
Tests run: 4, Failures: 0, Errors: 0, Skipped: 0, Time elapsed: 27.205 s - in com.example.demo.controller.StocksControllerTest
